Created Augmented pred/ipred plots with `augPred()` • nonmem2rx
…
#>  (WARNING  2) NM-TRAN INFERS THAT THE DATA ARE POPULATION.
#> 
#>     
#> 0MINIMIZATION SUCCESSFUL
#>  NO. OF FUNCTION EVALUATIONS USED:      320
#>  NO. OF SIG. DIGITS IN FINAL EST.:  2.5
#> 
#>     IPRED relative difference compared to Nonmem IPRED: 0%; 95% percentile: (0%,0%); rtol=6.43e-06
#>     PRED relative difference compared to Nonmem PRED: 0%; 95% percentile: (0%,0%); rtol=6.41e-06
#>     IPRED absolute difference compared to Nonmem IPRED: 95% percentile: (2.25e-05, 0.0418); atol=0.00167
#>     PRED absolute difference compared to Nonmem PRED: 95% percentile: (1.41e-07,0.00382); atol=6.41e-06
#>     nonmem2rx model file: '/home/runner/work/_temp/Library/nonmem2rx/mods/cpt/runODE032.ctl' 
#> 
#> ── Fit Data (object fit is a modified tibble): ──
#> # A tibble: 2,280 × 27
#>   ID     TIME    DV  PRED    RES IPRED  IRES  IWRES   eta1  eta2   eta3  eta4
#>   <fct> <dbl> <dbl> <dbl>  <dbl> <dbl> <dbl>  <dbl>  <dbl> <dbl>  <dbl> <dbl>
#> 1 1      0.25 1041. 1750. -710.  1215. -175. -0.732 -0.144 0.375 0.0650 0.241
#> 2 1      0.5  1629  1700.  -70.8 1192.  437.  1.87  -0.144 0.375 0.0650 0.241
#> 3 1      0.75  878. 1651. -774.  1169. -291. -1.27  -0.144 0.375 0.0650 0.241
#> # ℹ 2,277 more rows
#> # ℹ 15 more variables: ipred <dbl>, CENTRAL <dbl>, PERI <dbl>, cl <dbl>,
#> #   v <dbl>, q <dbl>, v2 <dbl>, v1 <dbl>, scale1 <dbl>, k21 <dbl>, k12 <dbl>,
#> #   f <dbl>, rescv <dbl>, tad <dbl>, dosenum <dbl>
…
