Reading rounding from NONMEM • nonmem2rx
…
#> 0MINIMIZATION TERMINATED
#>  DUE TO ROUNDING ERRORS (ERROR=134)
#>  NO. OF FUNCTION EVALUATIONS USED:     1088
#>  NO. OF SIG. DIGITS UNREPORTABLE
#> 0PARAMETER ESTIMATE IS NEAR ITS BOUNDARY
#> 
#>     IPRED relative difference compared to Nonmem IPRED: 0%; 95% percentile: (0%,0%); rtol=5.09e-06
#>     PRED relative difference compared to Nonmem PRED: 0%; 95% percentile: (0%,0%); rtol=5.29e-06
#>     IPRED absolute difference compared to Nonmem IPRED: 95% percentile: (2.2e-06, 0.000454); atol=3.03e-05
#>     PRED absolute difference compared to Nonmem PRED: 95% percentile: (4.72e-07,0.00361); atol=5.29e-06
#>     there are solving errors during optimization (see '$prderr')
#>     nonmem2rx model file: 'pk.turnover.emax3-nonmem/pk.turnover.emax3.nmctl' 
#> 
#> ── Fit Data (object is a modified tibble): ──
#> # A tibble: 483 × 35
#>   ID     TIME CMT      DV  PRED   RES IPRED   IRES  IWRES eta.ktr eta.ka eta.cl
#>   <fct> <dbl> <fct> <dbl> <dbl> <dbl> <dbl>  <dbl>  <dbl>   <dbl>  <dbl>  <dbl>
#> 1 1       0.5 dcp     0    1.16 -1.16 0.444 -0.444 -0.864  -0.506 -0.506  0.699
#> 2 1       1   dcp     1.9  3.37 -1.47 1.45   0.446  0.840  -0.506 -0.506  0.699
#> 3 1       2   dcp     3.3  7.51 -4.21 3.96  -0.660 -1.03   -0.506 -0.506  0.699
#> # ℹ 480 more rows
#> # ℹ 23 more variables: eta.v <dbl>, eta.emax <dbl>, eta.ec50 <dbl>,
#> #   eta.kout <dbl>, eta.e0 <dbl>, dcp <dbl>, eff <dbl>, DEPOT <dbl>, GUT <dbl>,
#> #   CENTER <dbl>, EFFECT <dbl>, ktr <dbl>, ka <dbl>, cl <dbl>, v <dbl>,
#> #   emax <dbl>, ec50 <dbl>, kout <dbl>, e0 <dbl>, pd <dbl>, kin <dbl>,
#> #   tad <dbl>, dosenum <dbl>
…
#>   Full BSV covariance (fit2$omega) or correlation (fit2$omegaR; diagonals=SDs) 
#>   Distribution stats (mean/skewness/kurtosis/p-value) available in fit2$shrink 
#>   Information about run found (fit2$runInfo):
#>    • gradient problems with covariance; see $scaleInfo 
#>    • since sandwich matrix is corrected, you may compare to $covR or $covS if you wish 
#>    • S matrix non-positive definite but corrected by S = sqrtm(S%*%S) 
#>    • R matrix non-positive definite but corrected by R = sqrtm(R%*%R) 
#>    • last objective function was not at minimum, possible problems in optimization 
#>    • ETAs were reset to zero during optimization; (Can control by foceiControl(resetEtaP=.)) 
#>   Censoring (fit2$censInformation): No censoring
#>   Minimization message (fit2$message):  
#>     Normal exit from bobyqa 
#> 
#> ── Fit Data (object fit2 is a modified tibble): ──
#> # A tibble: 483 × 33
#>   ID     TIME CMT      DV  PRED   RES  WRES IPRED   IRES IWRES CPRED  CRES CWRES
#>   <fct> <dbl> <fct> <dbl> <dbl> <dbl> <dbl> <dbl>  <dbl> <dbl> <dbl> <dbl> <dbl>
#> 1 1       0.5 dcp     0    1.25 -1.25 -1.83 0.994 -0.994 -1.64  1.23 -1.23 -1.89
#> 2 1       1   dcp     1.9  3.61 -1.71 -1.45 2.85  -0.952 -1.28  3.52 -1.62 -1.64
#> 3 1       2   dcp     3.3  7.83 -4.53 -1.99 6.16  -2.86  -2.49  7.66 -4.36 -2.40
#> # ℹ 480 more rows
#> # ℹ 20 more variables: eta.cl <dbl>, eta.v <dbl>, eta.ec50 <dbl>, eta.e0 <dbl>,
#> #   DEPOT <dbl>, GUT <dbl>, CENTER <dbl>, EFFECT <dbl>, ktr <dbl>, ka <dbl>,
#> #   cl <dbl>, v <dbl>, emax <dbl>, ec50 <dbl>, kout <dbl>, e0 <dbl>, pd <dbl>,
#> #   kin <dbl>, tad <dbl>, dosenum <dbl>
…
#> 0MINIMIZATION TERMINATED
#>  DUE TO ROUNDING ERRORS (ERROR=134)
#>  NO. OF FUNCTION EVALUATIONS USED:     1088
#>  NO. OF SIG. DIGITS UNREPORTABLE
#> 0PARAMETER ESTIMATE IS NEAR ITS BOUNDARY
#> 
#>     IPRED relative difference compared to Nonmem IPRED: 0%; 95% percentile: (0%,0%); rtol=5.09e-06
#>     PRED relative difference compared to Nonmem PRED: 0%; 95% percentile: (0%,0%); rtol=5.29e-06
#>     IPRED absolute difference compared to Nonmem IPRED: 95% percentile: (2.2e-06, 0.000454); atol=3.03e-05
#>     PRED absolute difference compared to Nonmem PRED: 95% percentile: (4.72e-07,0.00361); atol=5.29e-06
#>     there are solving errors during optimization (see '$prderr')
#>     nonmem2rx model file: 'pk.turnover.emax3-nonmem/pk.turnover.emax3.nmctl' 
#> 
#> ── Fit Data (object fit is a modified tibble): ──
#> # A tibble: 483 × 35
#>   ID     TIME CMT      DV  PRED   RES IPRED   IRES  IWRES eta.ktr eta.ka eta.cl
#>   <fct> <dbl> <fct> <dbl> <dbl> <dbl> <dbl>  <dbl>  <dbl>   <dbl>  <dbl>  <dbl>
#> 1 1       0.5 dcp     0    1.16 -1.16 0.444 -0.444 -0.864  -0.506 -0.506  0.699
#> 2 1       1   dcp     1.9  3.37 -1.47 1.45   0.446  0.840  -0.506 -0.506  0.699
#> 3 1       2   dcp     3.3  7.51 -4.21 3.96  -0.660 -1.03   -0.506 -0.506  0.699
#> # ℹ 480 more rows
#> # ℹ 23 more variables: eta.v <dbl>, eta.emax <dbl>, eta.ec50 <dbl>,
#> #   eta.kout <dbl>, eta.e0 <dbl>, dcp <dbl>, eff <dbl>, DEPOT <dbl>, GUT <dbl>,
#> #   CENTER <dbl>, EFFECT <dbl>, ktr <dbl>, ka <dbl>, cl <dbl>, v <dbl>,
#> #   emax <dbl>, ec50 <dbl>, kout <dbl>, e0 <dbl>, pd <dbl>, kin <dbl>,
#> #   tad <dbl>, dosenum <dbl>
…
