…
s
#> ── Solved rxode2 object ──
#> ── Parameters (x$params): ──
#> # A tibble: 10,000 × 11
#>    sim.id id    theta1 theta2 theta3 theta4   RSV    eta1     eta2      eta3
#>     <int> <fct>  <dbl>  <dbl>  <dbl>  <dbl> <dbl>   <dbl>    <dbl>     <dbl>
#>  1      1 1       1.34   4.14   1.34   3.88 0.197 -0.177  -0.0490   0.354   
#>  2      1 2       1.34   4.14   1.34   3.88 0.197  0.300  -0.175   -0.000835
#>  3      1 3       1.34   4.14   1.34   3.88 0.197  0.512   0.543    0.0679  
#>  4      1 4       1.34   4.14   1.34   3.88 0.197 -0.0557 -0.225    0.464   
#>  5      1 5       1.34   4.14   1.34   3.88 0.197  0.0727  0.717   -0.0169  
#>  6      1 6       1.34   4.14   1.34   3.88 0.197 -0.0835 -0.221    0.510   
#>  7      1 7       1.34   4.14   1.34   3.88 0.197  0.721  -0.147    0.306   
#>  8      1 8       1.34   4.14   1.34   3.88 0.197  0.336   0.00156  0.287   
#>  9      1 9       1.34   4.14   1.34   3.88 0.197  0.240  -0.00161 -0.246   
#> 10      1 10      1.34   4.14   1.34   3.88 0.197  0.368  -0.178    0.171   
#> # ℹ 9,990 more rows
#> # ℹ 1 more variable: eta4 <dbl>
#> ── Initial Conditions (x$inits): ──
#> CENTRAL    PERI 
#>       0       0 
#> 
#> Simulation with uncertainty in:
#> • parameters (x$thetaMat for changes)
#> • omega matrix (x$omegaList)
#> • sigma matrix (x$sigmaList)
#> 
#> ── First part of data (object): ──
#> # A tibble: 150,000 × 21
#>   sim.id    id  time    cl     v     q    v2    v1 scale1   k21    k12     f
#>    <int> <int> <dbl> <dbl> <dbl> <dbl> <dbl> <dbl>  <dbl> <dbl>  <dbl> <dbl>
#> 1      1     1     1  3.21  59.9  5.41  31.1  59.9   59.9 0.174 0.0904 1749.
#> 2      1     1     2  3.21  59.9  5.41  31.1  59.9   59.9 0.174 0.0904 1549.
#> 3      1     1     3  3.21  59.9  5.41  31.1  59.9   59.9 0.174 0.0904 1391.
#> 4      1     1     4  3.21  59.9  5.41  31.1  59.9   59.9 0.174 0.0904 1265.
#> 5      1     1     5  3.21  59.9  5.41  31.1  59.9   59.9 0.174 0.0904 1164.
#> 6      1     1     6  3.21  59.9  5.41  31.1  59.9   59.9 0.174 0.0904 1081.
#> # ℹ 149,994 more rows
#> # ℹ 9 more variables: ipred <dbl>, rescv <dbl>, w <dbl>, ires <dbl>,
#> #   iwres <dbl>, y <dbl>, CENTRAL <dbl>, PERI <dbl>, DV <dbl>
```

## Step 4: Summarize and plot

Since there is a bunch of data, a confidence band of the simulation with
uncertainty would be helpful.

One way to do that is to select the interesting components, create a
confidence interval and then plot the confidence bands:

``` r
sci <- confint(s, parm=c("CENTRAL", "PERI", "sim"))
#> summarizing data...done

sci
#> # A tibble: 90 × 7
#>        p1  time trt        p2.5     p50   p97.5 Percentile
#>     <dbl> <dbl> <fct>     <dbl>   <dbl>   <dbl> <fct>     
#>  1 0.0250     1 CENTRAL  89088.  93122.  97785. 2.5%      
#>  2 0.5        1 CENTRAL 104763. 106382. 107850. 50%       
#>  3 0.975      1 CENTRAL 111628. 113213. 114778. 97.5%     
#>  4 0.0250     2 CENTRAL  67932.  73356.  80896. 2.5%      
#>  5 0.5        2 CENTRAL  91994.  94928.  97428. 50%       
#>  6 0.975      2 CENTRAL 104126. 107042. 109995. 97.5%     
#>  7 0.0250     3 CENTRAL  52547.  59414.  67509. 2.5%      
#>  8 0.5        3 CENTRAL  81661.  85156.  88600. 50%       
#>  9 0.975      3 CENTRAL  97288. 101479. 105605. 97.5%     
#> 10 0.0250     4 CENTRAL  41353.  48409.  57328. 2.5%      
#> # ℹ 80 more rows
…
