Simulate using Parameter Uncertainty • nonmem2rx
…
s
#> ── Solved rxode2 object ──
#> ── Parameters (x$params): ──
#> # A tibble: 10,000 × 11
#>    sim.id id    theta1 theta2 theta3 theta4   RSV    eta1   eta2       eta3
#>     <int> <fct>  <dbl>  <dbl>  <dbl>  <dbl> <dbl>   <dbl>  <dbl>      <dbl>
#>  1      1 1       1.35   4.20   1.33   3.90 0.194  0.139  -0.277 -0.279    
#>  2      1 2       1.35   4.20   1.33   3.90 0.194 -0.383  -0.502  0.0800   
#>  3      1 3       1.35   4.20   1.33   3.90 0.194 -0.409  -0.636  0.285    
#>  4      1 4       1.35   4.20   1.33   3.90 0.194  0.0952 -0.129  0.653    
#>  5      1 5       1.35   4.20   1.33   3.90 0.194 -0.0307 -0.282 -0.124    
#>  6      1 6       1.35   4.20   1.33   3.90 0.194 -0.349  -0.198  0.287    
#>  7      1 7       1.35   4.20   1.33   3.90 0.194 -0.124  -0.256 -0.0465   
#>  8      1 8       1.35   4.20   1.33   3.90 0.194  0.193  -0.196  0.328    
#>  9      1 9       1.35   4.20   1.33   3.90 0.194  0.391   0.664  0.0000844
#> 10      1 10      1.35   4.20   1.33   3.90 0.194 -0.0423 -0.215 -0.149    
#> # ℹ 9,990 more rows
#> # ℹ 1 more variable: eta4 <dbl>
#> ── Initial Conditions (x$inits): ──
#> CENTRAL    PERI 
#>       0       0 
#> 
#> Simulation with uncertainty in:
#> • parameters (x$thetaMat for changes)
#> • omega matrix (x$omegaList)
#> • sigma matrix (x$sigmaList)
#> 
#> ── First part of data (object): ──
#> # A tibble: 150,000 × 21
#>   sim.id    id  time    cl     v     q    v2    v1 scale1    k21    k12     f
#>    <int> <int> <dbl> <dbl> <dbl> <dbl> <dbl> <dbl>  <dbl>  <dbl>  <dbl> <dbl>
#> 1      1     1     1  4.44  50.7  2.85  30.8  50.7   50.7 0.0924 0.0563 2056.
#> 2      1     1     2  4.44  50.7  2.85  30.8  50.7   50.7 0.0924 0.0563 1795.
#> 3      1     1     3  4.44  50.7  2.85  30.8  50.7   50.7 0.0924 0.0563 1576.
#> 4      1     1     4  4.44  50.7  2.85  30.8  50.7   50.7 0.0924 0.0563 1392.
#> 5      1     1     5  4.44  50.7  2.85  30.8  50.7   50.7 0.0924 0.0563 1236.
#> 6      1     1     6  4.44  50.7  2.85  30.8  50.7   50.7 0.0924 0.0563 1104.
#> # ℹ 149,994 more rows
#> # ℹ 9 more variables: ipred <dbl>, rescv <dbl>, w <dbl>, ires <dbl>,
#> #   iwres <dbl>, y <dbl>, CENTRAL <dbl>, PERI <dbl>, DV <dbl>

Step 4: Summarize and plot

Since there is a bunch of data, a confidence band of the simulation
with uncertainty would be helpful.

One way to do that is to select the interesting components, create a
confidence interval and then plot the confidence bands:

sci <- confint(s, parm=c("CENTRAL", "PERI", "sim"))
#> summarizing data...done

sci
#> # A tibble: 90 × 7
#>        p1  time trt        p2.5     p50   p97.5 Percentile
#>     <dbl> <dbl> <fct>     <dbl>   <dbl>   <dbl> <fct>     
#>  1 0.0250     1 CENTRAL  87596.  93715.  98391. 2.5%      
#>  2 0.5        1 CENTRAL 105000. 106690. 108013. 50%       
#>  3 0.975      1 CENTRAL 112152. 113325. 114676. 97.5%     
#>  4 0.0250     2 CENTRAL  65940.  74349.  81703. 2.5%      
#>  5 0.5        2 CENTRAL  92536.  95332.  97680. 50%       
#>  6 0.975      2 CENTRAL 105080. 107200. 109794. 97.5%     
#>  7 0.0250     3 CENTRAL  49880.  60468.  68450. 2.5%      
#>  8 0.5        3 CENTRAL  82182.  85686.  88683. 50%       
#>  9 0.975      3 CENTRAL  98624. 101630. 105311. 97.5%     
#> 10 0.0250     4 CENTRAL  38839.  49728.  58630. 2.5%      
#> # ℹ 80 more rows
…
